Taller2_JessicaRomero
…
data_final <- rbind(data1_df, data2_df, data3_df)

Utilizar las funciones dplyr::arrange y tidyr::separate para ordenar los datos de mayor a menos y separar la columna de fecha y hora.

#ordenar la data_final de mayor a menor
#crear una columna de fecha y hora 
data_final_ordenada <- data_final |> arrange(desc(value)) %>% 
  separate(timestamp, sep=10, into=c("fecha", "hora"))

data_final_ordenada

# A tibble: 19,787 × 5
   name                       fecha      hora     value serial
   <chr>                      <chr>      <chr>    <dbl> <lgl> 
 1 TEROS 10 Soil Moisture [2] 2022-09-04 " 13:00"  67.1 TRUE  
 2 TEROS 10 Soil Moisture [2] 2022-09-04 " 14:00"  66.9 TRUE  
 3 TEROS 10 Soil Moisture [2] 2022-09-05 " 02:00"  66.9 TRUE  
 4 TEROS 10 Soil Moisture [2] 2022-09-04 " 11:00"  66.8 TRUE  
 5 TEROS 10 Soil Moisture [2] 2022-09-04 " 16:00"  66.8 TRUE  
 6 TEROS 10 Soil Moisture [2] 2022-09-05 " 01:00"  66.8 TRUE  
 7 TEROS 10 Soil Moisture [2] 2022-09-04 " 15:00"  66.7 TRUE  
 8 TEROS 10 Soil Moisture [2] 2022-09-04 " 12:00"  66.7 TRUE  
 9 TEROS 10 Soil Moisture [2] 2022-09-04 " 10:00"  66.4 TRUE  
10 TEROS 10 Soil Moisture [2] 2022-09-05 " 03:00"  66.3 TRUE  
# … with 19,777 more rows

#ver si hay valores nulos explicitos e implicitos
data_final_ordenada|> complete(fecha, hora, fill = list(value = NA))

# A tibble: 19,882 × 5
   fecha      hora     name                            value serial
   <chr>      <chr>    <chr>                           <dbl> <lgl> 
 1 2022-09-01 " 00:00" TEROS 10 Soil Moisture [2]       46.4 TRUE  
 2 2022-09-01 " 00:00" TEROS 10 Soil Moisture [2]       45.4 TRUE  
 3 2022-09-01 " 00:00" GS1 Soil and Media Moisture [3]  42.4 FALSE 
 4 2022-09-01 " 00:00" TEROS 10 Soil Moisture [3]       38.7 FALSE 
 5 2022-09-01 " 00:00" TEROS 10 Soil Moisture [3]       38.6 TRUE  
 6 2022-09-01 " 00:00" TEROS 10 Soil Moisture [1]       38.5 TRUE  
 7 2022-09-01 " 00:00" TEROS 10 Soil Moisture [3]       38.1 TRUE  
 8 2022-09-01 " 00:00" TEROS 10 Soil Moisture [3]       37.7 FALSE 
 9 2022-09-01 " 00:00" GS1 Soil and Media Moisture [1]  37.1 FALSE 
10 2022-09-01 " 00:00" TEROS 10 Soil Moisture [1]       35.8 TRUE  
# … with 19,872 more rows
…
