Taller3_JessicaRomero
…
agregue la variable precipitación extraida de la columna anidada como una variable adicional

aplane (desanide) la variable de precipitación anterior.

data_nest |> 
  hoist(data, hoisted_col ='precipitacion_horaria') |>
  unnest(hoisted_col) |> 
  #4
  select(-data)

# A tibble: 1,188,096 × 2
   station_id hoisted_col
        <dbl>       <dbl>
 1          6           0
 2          6           0
 3          6           0
 4          6           0
 5          6           0
 6          6           0
 7          6           0
 8          6           0
 9          6           0
10          6           0
# … with 1,188,086 more rows
…
Rows: 3,573,024
Columns: 3
$ fecha_hora            <dttm> 2021-01-01 03:00:00, 2021-01-01 03:00:00, 2021-…
$ station_id            <dbl> 1, 2, 3, 4, 5, 6, 7, 8, 9, 10, 11, 12, 13, 14, 1…
$ precipitacion_horaria <dbl> 0, 0, 0, 0, NA, 0, NA, 0, 0, 0, 0, 0, 0, 0, NA, …

relicé el rellenado de los valores NA de precipitación horaria tomando el valor anterior.

data_agro |>
  fill(precipitacion_horaria, .direction = "down")

# A tibble: 3,573,024 × 13
   station…¹ fecha_hora          temp_…² preci…³ humed…⁴ presi…⁵ radia…⁶ veloc…⁷
       <dbl> <dttm>                <dbl>   <dbl>   <dbl>   <dbl>   <dbl>   <dbl>
 1         1 2021-01-01 03:00:00    20.4       0    66     1012        0     0  
 2         1 2021-01-01 04:00:00    20.4       0    66     1012.       0     0  
 3         1 2021-01-01 05:00:00    20.4       0    66     1012.       0     0  
 4         1 2021-01-01 06:00:00    20.4       0    66     1013        0     0  
 5         1 2021-01-01 07:00:00    NA         0    NA       NA       NA    NA  
 6         1 2021-01-01 08:00:00    22.8       0    59     1014.     299     0.4
 7         1 2021-01-01 09:00:00    24         0    56.2   1013.     740     3.1
 8         1 2021-01-01 10:00:00    25.2       0    52.8   1013.     867     3.6
 9         1 2021-01-01 11:00:00    25.8       0    49.8   1012.     932     3.1
10         1 2021-01-01 12:00:00    26.9       0    47.8   1012      991     3.1
# … with 3,573,014 more rows, 5 more variables: temp_minima <dbl>,
#   temp_maxima <dbl>, direccion_del_viento <dbl>, grados_dia <dbl>,
#   horas_frio <dbl>, and abbreviated variable names ¹​station_id,
#   ²​temp_promedio_aire, ³​precipitacion_horaria, ⁴​humed_rel_promedio,
#   ⁵​presion_atmosferica, ⁶​radiacion_solar_max, ⁷​veloc_max_viento
…
# A tibble: 2 × 1
  `range(fecha_hora)`
  <date>             
1 2021-05-01         
2 2021-07-31         

tome una muestra de 1000 filas de forma aleatoria sin reemplazo.

data_agromet_jess |> 
  slice_sample(n=1000)

# A tibble: 1,000 × 13
   station…¹ fecha_hora          temp_…² preci…³ humed…⁴ presi…⁵ radia…⁶ veloc…⁷
       <dbl> <dttm>                <dbl>   <dbl>   <dbl>   <dbl>   <dbl>   <dbl>
 1       375 2021-04-27 00:00:00     6.3     0      99.9   1016      0.2     0.3
 2        61 2021-08-29 11:00:00    22.1     0      45     1013.   744.      0.5
 3       360 2021-06-01 19:00:00    16.5     0      56.3    960.     0       1.6
 4       133 2021-08-10 10:00:00     7.2     0      81.4   1021.   167       2  
 5       109 2021-09-11 18:00:00     7.8    12.1    92.2   1008.     0       8  
 6       140 2021-11-13 17:00:00    14.9     0      58.1   1013.   719       2  
 7       269 2021-07-11 04:00:00    NA      NA      NA       NA     NA      NA  
 8       291 2021-12-16 23:00:00    14.5     0      74     1020.     0       2  
 9       644 2021-10-04 00:00:00     4.3     0      94.5   1010      0       0  
10       281 2021-03-20 03:00:00    14.5     0      71.6    934      0       0  
# … with 990 more rows, 5 more variables: temp_minima <dbl>, temp_maxima <dbl>,
#   direccion_del_viento <dbl>, grados_dia <dbl>, horas_frio <dbl>, and
#   abbreviated variable names ¹​station_id, ²​temp_promedio_aire,
#   ³​precipitacion_horaria, ⁴​humed_rel_promedio, ⁵​presion_atmosferica,
#   ⁶​radiacion_solar_max, ⁷​veloc_max_viento

Para cada estación seleccione los valores máximos de precipitación horaria.

data_agromet_jess |> 
  group_by(station_id) |>
  slice_max(precipitacion_horaria,n=100) 

# A tibble: 371,843 × 13
# Groups:   station_id [136]
   station…¹ fecha_hora          temp_…² preci…³ humed…⁴ presi…⁵ radia…⁶ veloc…⁷
       <dbl> <dttm>                <dbl>   <dbl>   <dbl>   <dbl>   <dbl>   <dbl>
 1         6 2021-06-23 12:00:00    11.3     4.2    89.5    986.      68     0.5
 2         6 2021-08-25 00:00:00     8.3     4.2    91      983.       1     1.5
 3         6 2021-08-25 01:00:00     8.2     2.4    90.7    984.       1     0.5
 4         6 2021-08-25 02:00:00     7.8     2.4    92.7    984.       1     0  
 5         6 2021-06-23 13:00:00    11.4     2      91.1    986.      67     0  
 6         6 2021-06-23 14:00:00    11.5     1.6    92.2    986.     186     0  
 7         6 2021-08-25 03:00:00     7.5     1.2    92.7    984.       1     0.5
 8         6 2021-08-24 23:00:00     9.9     0.8    90      982.       1     0.5
 9         6 2021-08-24 22:00:00    10.2     0.4    83.6    981.       1     1  
10         6 2021-06-23 15:00:00    12.2     0.2    88.4    985.     156     1  
# … with 371,833 more rows, 5 more variables: temp_minima <dbl>,
#   temp_maxima <dbl>, direccion_del_viento <dbl>, grados_dia <dbl>,
#   horas_frio <dbl>, and abbreviated variable names ¹​station_id,
#   ²​temp_promedio_aire, ³​precipitacion_horaria, ⁴​humed_rel_promedio,
#   ⁵​presion_atmosferica, ⁶​radiacion_solar_max, ⁷​veloc_max_viento
…
Rows: 1,188,096
Columns: 5
$ station_id         <dbl> 6, 6, 6, 6, 6, 6, 6, 6, 6, 6, 6, 6, 6, 6, 6, 6, 6, …
$ fecha_hora         <dttm> 2021-01-01 03:00:00, 2021-01-01 04:00:00, 2021-01-…
$ temp_promedio_aire <dbl> 17.5, 17.7, 17.6, 16.0, 16.7, 19.7, 21.3, 24.0, 25.…
$ temp_minima        <dbl> 17.3, 17.6, 17.2, 15.0, 14.9, 18.8, 20.8, 22.5, 24.…
$ temp_maxima        <dbl> 17.7, 17.8, 17.8, 16.9, 18.8, 20.7, 22.3, 24.8, 25.…

Seleccione las columnas que tienen valores no numéricos.

data_agromet_jess %>%  
  select_if(., ~ !is.numeric(.))

# A tibble: 1,188,096 × 1
   fecha_hora         
   <dttm>             
 1 2021-01-01 03:00:00
 2 2021-01-01 04:00:00
 3 2021-01-01 05:00:00
 4 2021-01-01 06:00:00
 5 2021-01-01 07:00:00
 6 2021-01-01 08:00:00
 7 2021-01-01 09:00:00
 8 2021-01-01 10:00:00
 9 2021-01-01 11:00:00
10 2021-01-01 12:00:00
# … with 1,188,086 more rows

Parte 3 Ejercicios {dplyr} (parte 2)

Agrupe los datos de las climáticos de agromet por estación (group_by)

data_agro |> 
  group_by(station_id)

# A tibble: 3,573,024 × 13
# Groups:   station_id [409]
   station…¹ fecha_hora          temp_…² preci…³ humed…⁴ presi…⁵ radia…⁶ veloc…⁷
       <dbl> <dttm>                <dbl>   <dbl>   <dbl>   <dbl>   <dbl>   <dbl>
 1         1 2021-01-01 03:00:00    20.4       0    66     1012        0     0  
 2         1 2021-01-01 04:00:00    20.4       0    66     1012.       0     0  
 3         1 2021-01-01 05:00:00    20.4       0    66     1012.       0     0  
 4         1 2021-01-01 06:00:00    20.4       0    66     1013        0     0  
 5         1 2021-01-01 07:00:00    NA        NA    NA       NA       NA    NA  
 6         1 2021-01-01 08:00:00    22.8       0    59     1014.     299     0.4
 7         1 2021-01-01 09:00:00    24         0    56.2   1013.     740     3.1
 8         1 2021-01-01 10:00:00    25.2       0    52.8   1013.     867     3.6
 9         1 2021-01-01 11:00:00    25.8       0    49.8   1012.     932     3.1
10         1 2021-01-01 12:00:00    26.9       0    47.8   1012      991     3.1
# … with 3,573,014 more rows, 5 more variables: temp_minima <dbl>,
#   temp_maxima <dbl>, direccion_del_viento <dbl>, grados_dia <dbl>,
#   horas_frio <dbl>, and abbreviated variable names ¹​station_id,
#   ²​temp_promedio_aire, ³​precipitacion_horaria, ⁴​humed_rel_promedio,
#   ⁵​presion_atmosferica, ⁶​radiacion_solar_max, ⁷​veloc_max_viento

Haga un sumarizado de promedio mensual de las variables de temperatura para cada estación (group_by, summarize y across)

data_agro_prom <-
data_agro |> 
  group_by(station_id) |>
  summarise(across(contains("temp"),\(x) mean( x, na.rm = T), .names = "{.col}_avg"))

data_agro_prom

# A tibble: 409 × 4
   station_id temp_promedio_aire_avg temp_minima_avg temp_maxima_avg
        <dbl>                  <dbl>           <dbl>           <dbl>
 1          1                   19.5            19.3            19.7
 2          2                   18.3            18.1            18.6
 3          3                   20.5            19.6            21.3
 4          4                   15.4            14.7            16.1
 5          5                  NaN             NaN             NaN  
 6          6                   16.0            15.3            16.6
 7          7                  NaN             NaN             NaN  
 8          8                   14.8            14.2            15.5
 9          9                   17.4            16.7            18.1
10         10                   15.6            15.0            16.1
# … with 399 more rows

Renombre y reordene las variables como temp_prom, temp_max y Temp_min (rename_with y `relocate``)

data_agro_prom_names <- data_agro_prom |> 
  rename_with(contains("temp"),.fn = \(x) substr(x, start =1,stop =8))

data_agro_prom_names

# A tibble: 409 × 4
   station_id temp_pro temp_min temp_max
        <dbl>    <dbl>    <dbl>    <dbl>
 1          1     19.5     19.3     19.7
 2          2     18.3     18.1     18.6
 3          3     20.5     19.6     21.3
 4          4     15.4     14.7     16.1
 5          5    NaN      NaN      NaN  
 6          6     16.0     15.3     16.6
 7          7    NaN      NaN      NaN  
 8          8     14.8     14.2     15.5
 9          9     17.4     16.7     18.1
10         10     15.6     15.0     16.1
# … with 399 more rows

data_agro_prom_names |>
  relocate(temp_max, .after = temp_pro) |>
  relocate(temp_min, .after = last_col())

# A tibble: 409 × 4
   station_id temp_pro temp_max temp_min
        <dbl>    <dbl>    <dbl>    <dbl>
 1          1     19.5     19.7     19.3
 2          2     18.3     18.6     18.1
 3          3     20.5     21.3     19.6
 4          4     15.4     16.1     14.7
 5          5    NaN      NaN      NaN  
 6          6     16.0     16.6     15.3
 7          7    NaN      NaN      NaN  
 8          8     14.8     15.5     14.2
 9          9     17.4     18.1     16.7
10         10     15.6     16.1     15.0
# … with 399 more rows
…
Parte 4 Ejercicios {dplyr} (parte 3)

Con los datos de agromet, calcule el promedio de temperatura (media, máxima, mínima) por día y estación. Utilice summarize y across.

data_agro_prom_4 <-
  data_agro |>
  group_by(fecha_hora, station_id) |>
  summarise(across(contains("temp"),\(x) mean( x, na.rm = T), .names = "{.col}_avg"))

`summarise()` has grouped output by 'fecha_hora'. You can override using the
`.groups` argument.

data_agro_prom_4

# A tibble: 3,573,024 × 5
# Groups:   fecha_hora [8,736]
   fecha_hora          station_id temp_promedio_aire_avg temp_minima_avg temp_…¹
   <dttm>                   <dbl>                  <dbl>           <dbl>   <dbl>
 1 2021-01-01 03:00:00          1                   20.4            20.4    20.4
 2 2021-01-01 03:00:00          2                   20.5            20.5    20.6
 3 2021-01-01 03:00:00          3                   16.7            16.4    16.8
 4 2021-01-01 03:00:00          4                   14.3            14.2    14.4
 5 2021-01-01 03:00:00          5                  NaN             NaN     NaN  
 6 2021-01-01 03:00:00          6                   17.5            17.3    17.7
 7 2021-01-01 03:00:00          7                  NaN             NaN     NaN  
 8 2021-01-01 03:00:00          8                   13.9            13.3    14.2
 9 2021-01-01 03:00:00          9                   16.3            16.1    16.6
10 2021-01-01 03:00:00         10                   16.5            15.7    17.4
# … with 3,573,014 more rows, and abbreviated variable name ¹​temp_maxima_avg

Para cada estacion calcule el valor de la mediana.

data_agro_prom_4 |>
  group_by(station_id) |>
  summarise(across(everything(),\(x) mean( x, na.rm = T)))

# A tibble: 409 × 5
   station_id fecha_hora          temp_promedio_aire_avg temp_minima_avg temp_…¹
        <dbl> <dttm>                               <dbl>           <dbl>   <dbl>
 1          1 2021-07-02 03:18:08                   19.5            19.3    19.7
 2          2 2021-07-02 03:18:08                   18.3            18.1    18.6
 3          3 2021-07-02 03:18:08                   20.5            19.6    21.3
 4          4 2021-07-02 03:18:08                   15.4            14.7    16.1
 5          5 2021-07-02 03:18:08                  NaN             NaN     NaN  
 6          6 2021-07-02 03:18:08                   16.0            15.3    16.6
 7          7 2021-07-02 03:18:08                  NaN             NaN     NaN  
 8          8 2021-07-02 03:18:08                   14.8            14.2    15.5
 9          9 2021-07-02 03:18:08                   17.4            16.7    18.1
10         10 2021-07-02 03:18:08                   15.6            15.0    16.1
# … with 399 more rows, and abbreviated variable name ¹​temp_maxima_avg

Verifique que los nombres de la estaciones son únicos (distinct).

data_agro_prom_4|>
  distinct(station_id)

# A tibble: 3,573,024 × 2
# Groups:   fecha_hora [8,736]
   fecha_hora          station_id
   <dttm>                   <dbl>
 1 2021-01-01 03:00:00          1
 2 2021-01-01 03:00:00          2
 3 2021-01-01 03:00:00          3
 4 2021-01-01 03:00:00          4
 5 2021-01-01 03:00:00          5
 6 2021-01-01 03:00:00          6
 7 2021-01-01 03:00:00          7
 8 2021-01-01 03:00:00          8
 9 2021-01-01 03:00:00          9
10 2021-01-01 03:00:00         10
# … with 3,573,014 more rows
