Taller 4
…
Utilice across y mutate junto con una función anónima (lambda)

Utilice across y mutate junto con una función nombrada (lambda)

library(dplyr)

rcsl <-  sqrt(mean(iris$Sepal.Length))

iris |> 
  group_by(Species) |>
  mutate(rcsl = sqrt(mean(iris$Sepal.Length))) |>
  mutate(across(where(is.numeric),.fns = \(x) x/rcsl)) #con funcion anonima y nombrada

# A tibble: 150 × 6
# Groups:   Species [3]
   Sepal.Length Sepal.Width Petal.Length Petal.Width Species  rcsl
          <dbl>       <dbl>        <dbl>       <dbl> <fct>   <dbl>
 1         2.11        1.45        0.579      0.0827 setosa      1
 2         2.03        1.24        0.579      0.0827 setosa      1
 3         1.94        1.32        0.538      0.0827 setosa      1
 4         1.90        1.28        0.621      0.0827 setosa      1
 5         2.07        1.49        0.579      0.0827 setosa      1
 6         2.23        1.61        0.703      0.165  setosa      1
 7         1.90        1.41        0.579      0.124  setosa      1
 8         2.07        1.41        0.621      0.0827 setosa      1
 9         1.82        1.20        0.579      0.0827 setosa      1
10         2.03        1.28        0.621      0.0414 setosa      1
# … with 140 more rows
…
iris |>
  group_by(Species) |> 
  mutate(across(where(is.numeric),.fns=f, y = iris$Sepal.Width)) #tamboien puedo usar everything()

# A tibble: 150 × 5
# Groups:   Species [3]
   Sepal.Length Sepal.Width Petal.Length Petal.Width Species
          <dbl>       <dbl>        <dbl>       <dbl> <fct>  
 1         2.92        2.00        0.801      0.114  setosa 
 2         2.80        1.72        0.801      0.114  setosa 
 3         2.69        1.83        0.743      0.114  setosa 
 4         2.63        1.77        0.858      0.114  setosa 
 5         2.86        2.06        0.801      0.114  setosa 
 6         3.09        2.23        0.972      0.229  setosa 
 7         2.63        1.94        0.801      0.172  setosa 
 8         2.86        1.94        0.858      0.114  setosa 
 9         2.52        1.66        0.801      0.114  setosa 
10         2.80        1.77        0.858      0.0572 setosa 
# … with 140 more rows

#transformar a una funcion anonima
iris |>
  group_by(Species) |>
  mutate(across(where(is.numeric),.fns=\(x,y) x/sqrt(mean(y)), y = iris$Sepal.Width)) 

# A tibble: 150 × 5
# Groups:   Species [3]
   Sepal.Length Sepal.Width Petal.Length Petal.Width Species
          <dbl>       <dbl>        <dbl>       <dbl> <fct>  
 1         2.92        2.00        0.801      0.114  setosa 
 2         2.80        1.72        0.801      0.114  setosa 
 3         2.69        1.83        0.743      0.114  setosa 
 4         2.63        1.77        0.858      0.114  setosa 
 5         2.86        2.06        0.801      0.114  setosa 
 6         3.09        2.23        0.972      0.229  setosa 
 7         2.63        1.94        0.801      0.172  setosa 
 8         2.86        1.94        0.858      0.114  setosa 
 9         2.52        1.66        0.801      0.114  setosa 
10         2.80        1.77        0.858      0.0572 setosa 
# … with 140 more rows
…
#aplicar para agromet
library(lubridate)

Attaching package: 'lubridate'

The following objects are masked from 'package:base':

    date, intersect, setdiff, union

data_agromet_jess |>
  group_by(mes = floor_date(fecha_hora, '1 month')) |>
    mutate(across(2:11,.fns=f1)) 

# A tibble: 1,188,096 × 14
# Groups:   mes [12]
   station_id fecha_hora temp_…¹ preci…² humed…³ presi…⁴ radia…⁵ veloc…⁶ temp_…⁷
        <dbl> <fct>      <fct>   <fct>   <fct>   <fct>   <fct>   <fct>   <fct>  
 1          6 bajo       medio   bajo    alto    alto    bajo    bajo    medio  
 2          6 bajo       medio   bajo    alto    alto    bajo    bajo    medio  
 3          6 bajo       medio   bajo    alto    alto    bajo    bajo    medio  
 4          6 bajo       medio   bajo    alto    alto    bajo    bajo    medio  
 5          6 bajo       medio   bajo    alto    alto    bajo    bajo    medio  
 6          6 bajo       medio   bajo    alto    alto    bajo    bajo    medio  
 7          6 bajo       medio   bajo    medio   alto    bajo    bajo    medio  
 8          6 bajo       alto    bajo    medio   alto    medio   bajo    alto   
 9          6 bajo       alto    bajo    medio   alto    medio   bajo    alto   
10          6 bajo       alto    bajo    medio   alto    medio   bajo    alto   
# … with 1,188,086 more rows, 5 more variables: temp_maxima <fct>,
#   direccion_del_viento <fct>, grados_dia <dbl>, horas_frio <dbl>, mes <dttm>,
#   and abbreviated variable names ¹​temp_promedio_aire, ²​precipitacion_horaria,
#   ³​humed_rel_promedio, ⁴​presion_atmosferica, ⁵​radiacion_solar_max,
#   ⁶​veloc_max_viento, ⁷​temp_minima
